{
    "data": [
        {
            "id": 455103,
            "date": "2021-08-10T00:00:00.000Z",
            "home_team": {
                "id": 11,
                "abbreviation": "HOU",
                "city": "Houston",
                "conference": "West",
                "division": "Southwest",
                "full_name": "Houston Rockets",
                "name": "Rockets"
            },
            "home_team_score": 111,
            "period": 0,
            "postseason": false,
            "season": 2021,
            "status": "Final",
            "time": "",
            "visitor_team": {
                "id": 9,
                "abbreviation": "DET",
                "city": "Detroit",
                "conference": "East",
                "division": "Central",
                "full_name": "Detroit Pistons",
                "name": "Pistons"
            },
            "visitor_team_score": 91
        },
        {
            "id": 450930,
            "date": "2021-08-06T00:00:00.000Z",
            "home_team": {
                "id": 15,
                "abbreviation": "MEM",
                "city": "Memphis",
                "conference": "West",
                "division": "Southwest",
                "full_name": "Memphis Grizzlies",
                "name": "Grizzlies"
            },
            "home_team_score": 82,
            "period": 4,
            "postseason": false,
            "season": 2021,
            "status": "Final",
            "time": "",
            "visitor_team": {
                "id": 27,
                "abbreviation": "SAS",
                "city": "San Antonio",
                "conference": "West",
                "division": "Southwest",
                "full_name": "San Antonio Spurs",
                "name": "Spurs"
            },
            "visitor_team_score": 77
        },
        {
            "id": 455104,
            "date": "2021-08-10T00:00:00.000Z",
            "home_team": {
                "id": 30,
                "abbreviation": "WAS",
                "city": "Washington",
                "conference": "East",
                "division": "Southeast",
                "full_name": "Washington Wizards",
                "name": "Wizards"
            },
            "home_team_score": 75,
            "period": 0,
            "postseason": false,
            "season": 2021,
            "status": "Final",
            "time": "",
            "visitor_team": {
                "id": 26,
                "abbreviation": "SAC",
                "city": "Sacramento",
                "conference": "West",
                "division": "Pacific",
                "full_name": "Sacramento Kings",
                "name": "Kings"
            },
            "visitor_team_score": 89
        },
        {
            "id": 455105,
            "date": "2021-08-10T00:00:00.000Z",
            "home_team": {
                "id": 25,
                "abbreviation": "POR",
                "city": "Portland",
                "conference": "West",
                "division": "Northwest",
                "full_name": "Portland Trail Blazers",
                "name": "Trail Blazers"
            },
            "home_team_score": 86,
            "period": 0,
            "postseason": false,
            "season": 2021,
            "status": "Final",
            "time": "",
            "visitor_team": {
                "id": 13,
                "abbreviation": "LAC",
                "city": "LA",
                "conference": "West",
                "division": "Pacific",
                "full_name": "LA Clippers",
                "name": "Clippers"
            },
            "visitor_team_score": 66
        },
        {
            "id": 455106,
            "date": "2021-08-10T00:00:00.000Z",
            "home_team": {
                "id": 8,
                "abbreviation": "DEN",
                "city": "Denver",
                "conference": "West",
                "division": "Northwest",
                "full_name": "Denver Nuggets",
                "name": "Nuggets"
            },
            "home_team_score": 82,
            "period": 0,
            "postseason": false,
            "season": 2021,
            "status": "Final",
            "time": "",
            "visitor_team": {
                "id": 2,
                "abbreviation": "BOS",
                "city": "Boston",
                "conference": "East",
                "division": "Atlantic",
                "full_name": "Boston Celtics",
                "name": "Celtics"
            },
            "visitor_team_score": 107
        },
        {
            "id": 455107,
            "date": "2021-08-10T00:00:00.000Z",
            "home_team": {
                "id": 12,
                "abbreviation": "IND",
                "city": "Indiana",
                "conference": "East",
                "division": "Central",
                "full_name": "Indiana Pacers",
                "name": "Pacers"
            },
            "home_team_score": 83,
            "period": 0,
            "postseason": false,
            "season": 2021,
            "status": "Final",
            "time": "",
            "visitor_team": {
                "id": 1,
                "abbreviation": "ATL",
                "city": "Atlanta",
                "conference": "East",
                "division": "Southeast",
                "full_name": "Atlanta Hawks",
                "name": "Hawks"
            },
            "visitor_team_score": 84
        },
        {
            "id": 457259,
            "date": "2021-08-11T00:00:00.000Z",
            "home_team": {
                "id": 3,
                "abbreviation": "BKN",
                "city": "Brooklyn",
                "conference": "East",
                "division": "Atlantic",
                "full_name": "Brooklyn Nets",
                "name": "Nets"
            },
            "home_team_score": 97,
            "period": 4,
            "postseason": false,
            "season": 2021,
            "status": "Final",
            "time": "",
            "visitor_team": {
                "id": 17,
                "abbreviation": "MIL",
                "city": "Milwaukee",
                "conference": "East",
                "division": "Central",
                "full_name": "Milwaukee Bucks",
                "name": "Bucks"
            },
            "visitor_team_score": 91
        },
        {
            "id": 457260,
            "date": "2021-08-11T00:00:00.000Z",
            "home_team": {
                "id": 7,
                "abbreviation": "DAL",
                "city": "Dallas",
                "conference": "West",
                "division": "Southwest",
                "full_name": "Dallas Mavericks",
                "name": "Mavericks"
            },
            "home_team_score": 80,
            "period": 6,
            "postseason": false,
            "season": 2021,
            "status": "Final",
            "time": "",
            "visitor_team": {
                "id": 29,
                "abbreviation": "UTA",
                "city": "Utah",
                "conference": "West",
                "division": "Northwest",
                "full_name": "Utah Jazz",
                "name": "Jazz"
            },
            "visitor_team_score": 81
        },
        {
            "id": 457265,
            "date": "2021-08-11T00:00:00.000Z",
            "home_team": {
                "id": 14,
                "abbreviation": "LAL",
                "city": "Los Angeles",
                "conference": "West",
                "division": "Pacific",
                "full_name": "Los Angeles Lakers",
                "name": "Lakers"
            },
            "home_team_score": 82,
            "period": 4,
            "postseason": false,
            "season": 2021,
            "status": "Final",
            "time": "",
            "visitor_team": {
                "id": 20,
                "abbreviation": "NYK",
                "city": "New York",
                "conference": "East",
                "division": "Atlantic",
                "full_name": "New York Knicks",
                "name": "Knicks"
            },
            "visitor_team_score": 91
        },
        {
            "id": 457261,
            "date": "2021-08-11T00:00:00.000Z",
            "home_team": {
                "id": 19,
                "abbreviation": "NOP",
                "city": "New Orleans",
                "conference": "West",
                "division": "Southwest",
                "full_name": "New Orleans Pelicans",
                "name": "Pelicans"
            },
            "home_team_score": 80,
            "period": 4,
            "postseason": false,
            "season": 2021,
            "status": "Final",
            "time": "",
            "visitor_team": {
                "id": 21,
                "abbreviation": "OKC",
                "city": "Oklahoma City",
                "conference": "West",
                "division": "Northwest",
                "full_name": "Oklahoma City Thunder",
                "name": "Thunder"
            },
            "visitor_team_score": 65
        },
        {
            "id": 448625,
            "date": "2021-08-03T00:00:00.000Z",
            "home_team": {
                "id": 16,
                "abbreviation": "MIA",
                "city": "Miami",
                "conference": "East",
                "division": "Southeast",
                "full_name": "Miami Heat",
                "name": "Heat"
            },
            "home_team_score": 80,
            "period": 4,
            "postseason": false,
            "season": 2021,
            "status": "Final",
            "time": "",
            "visitor_team": {
                "id": 14,
                "abbreviation": "LAL",
                "city": "Los Angeles",
                "conference": "West",
                "division": "Pacific",
                "full_name": "Los Angeles Lakers",
                "name": "Lakers"
            },
            "visitor_team_score": 78
        },
        {
            "id": 457262,
            "date": "2021-08-11T00:00:00.000Z",
            "home_team": {
                "id": 22,
                "abbreviation": "ORL",
                "city": "Orlando",
                "conference": "East",
                "division": "Southeast",
                "full_name": "Orlando Magic",
                "name": "Magic"
            },
            "home_team_score": 84,
            "period": 4,
            "postseason": false,
            "season": 2021,
            "status": "Final",
            "time": "",
            "visitor_team": {
                "id": 6,
                "abbreviation": "CLE",
                "city": "Cleveland",
                "conference": "East",
                "division": "Central",
                "full_name": "Cleveland Cavaliers",
                "name": "Cavaliers"
            },
            "visitor_team_score": 94
        },
        {
            "id": 473357,
            "date": "2021-10-04T00:00:00.000Z",
            "home_team": {
                "id": 28,
                "abbreviation": "TOR",
                "city": "Toronto",
                "conference": "East",
                "division": "Atlantic",
                "full_name": "Toronto Raptors",
                "name": "Raptors"
            },
            "home_team_score": 123,
            "period": 4,
            "postseason": false,
            "season": 2021,
            "status": "Final",
            "time": "",
            "visitor_team": {
                "id": 23,
                "abbreviation": "PHI",
                "city": "Philadelphia",
                "conference": "East",
                "division": "Atlantic",
                "full_name": "Philadelphia 76ers",
                "name": "76ers"
            },
            "visitor_team_score": 107
        },
        {
            "id": 457263,
            "date": "2021-08-11T00:00:00.000Z",
            "home_team": {
                "id": 10,
                "abbreviation": "GSW",
                "city": "Golden State",
                "conference": "West",
                "division": "Pacific",
                "full_name": "Golden State Warriors",
                "name": "Warriors"
            },
            "home_team_score": 90,
            "period": 4,
            "postseason": false,
            "season": 2021,
            "status": "Final",
            "time": "",
            "visitor_team": {
                "id": 28,
                "abbreviation": "TOR",
                "city": "Toronto",
                "conference": "East",
                "division": "Atlantic",
                "full_name": "Toronto Raptors",
                "name": "Raptors"
            },
            "visitor_team_score": 84
        },
        {
            "id": 473358,
            "date": "2021-10-04T00:00:00.000Z",
            "home_team": {
                "id": 2,
                "abbreviation": "BOS",
                "city": "Boston",
                "conference": "East",
                "division": "Atlantic",
                "full_name": "Boston Celtics",
                "name": "Celtics"
            },
            "home_team_score": 98,
            "period": 4,
            "postseason": false,
            "season": 2021,
            "status": "Final",
            "time": "",
            "visitor_team": {
                "id": 22,
                "abbreviation": "ORL",
                "city": "Orlando",
                "conference": "East",
                "division": "Southeast",
                "full_name": "Orlando Magic",
                "name": "Magic"
            },
            "visitor_team_score": 97
        },
        {
            "id": 457264,
            "date": "2021-08-11T00:00:00.000Z",
            "home_team": {
                "id": 15,
                "abbreviation": "MEM",
                "city": "Memphis",
                "conference": "West",
                "division": "Southwest",
                "full_name": "Memphis Grizzlies",
                "name": "Grizzlies"
            },
            "home_team_score": 94,
            "period": 6,
            "postseason": false,
            "season": 2021,
            "status": "Final",
            "time": "",
            "visitor_team": {
                "id": 16,
                "abbreviation": "MIA",
                "city": "Miami",
                "conference": "East",
                "division": "Southeast",
                "full_name": "Miami Heat",
                "name": "Heat"
            },
            "visitor_team_score": 97
        },
        {
            "id": 473359,
            "date": "2021-10-04T00:00:00.000Z",
            "home_team": {
                "id": 16,
                "abbreviation": "MIA",
                "city": "Miami",
                "conference": "East",
                "division": "Southeast",
                "full_name": "Miami Heat",
                "name": "Heat"
            },
            "home_team_score": 125,
            "period": 4,
            "postseason": false,
            "season": 2021,
            "status": "Final",
            "time": "",
            "visitor_team": {
                "id": 1,
                "abbreviation": "ATL",
                "city": "Atlanta",
                "conference": "East",
                "division": "Southeast",
                "full_name": "Atlanta Hawks",
                "name": "Hawks"
            },
            "visitor_team_score": 99
        },
        {
            "id": 448628,
            "date": "2021-08-03T00:00:00.000Z",
            "home_team": {
                "id": 26,
                "abbreviation": "SAC",
                "city": "Sacramento",
                "conference": "West",
                "division": "Pacific",
                "full_name": "Sacramento Kings",
                "name": "Kings"
            },
            "home_team_score": 82,
            "period": 5,
            "postseason": false,
            "season": 2021,
            "status": "Final",
            "time": "",
            "visitor_team": {
                "id": 10,
                "abbreviation": "GSW",
                "city": "Golden State",
                "conference": "West",
                "division": "Pacific",
                "full_name": "Golden State Warriors",
                "name": "Warriors"
            },
            "visitor_team_score": 89
        },
        {
            "id": 459139,
            "date": "2021-08-12T00:00:00.000Z",
            "home_team": {
                "id": 8,
                "abbreviation": "DEN",
                "city": "Denver",
                "conference": "West",
                "division": "Northwest",
                "full_name": "Denver Nuggets",
                "name": "Nuggets"
            },
            "home_team_score": 84,
            "period": 4,
            "postseason": false,
            "season": 2021,
            "status": "Final",
            "time": "",
            "visitor_team": {
                "id": 24,
                "abbreviation": "PHX",
                "city": "Phoenix",
                "conference": "West",
                "division": "Pacific",
                "full_name": "Phoenix Suns",
                "name": "Suns"
            },
            "visitor_team_score": 90
        },
        {
            "id": 459132,
            "date": "2021-08-12T00:00:00.000Z",
            "home_team": {
                "id": 1,
                "abbreviation": "ATL",
                "city": "Atlanta",
                "conference": "East",
                "division": "Southeast",
                "full_name": "Atlanta Hawks",
                "name": "Hawks"
            },
            "home_team_score": 88,
            "period": 5,
            "postseason": false,
            "season": 2021,
            "status": "Final",
            "time": "",
            "visitor_team": {
                "id": 23,
                "abbreviation": "PHI",
                "city": "Philadelphia",
                "conference": "East",
                "division": "Atlantic",
                "full_name": "Philadelphia 76ers",
                "name": "76ers"
            },
            "visitor_team_score": 96
        },
        {
            "id": 473360,
            "date": "2021-10-04T00:00:00.000Z",
            "home_team": {
                "id": 18,
                "abbreviation": "MIN",
                "city": "Minnesota",
                "conference": "West",
                "division": "Northwest",
                "full_name": "Minnesota Timberwolves",
                "name": "Timberwolves"
            },
            "home_team_score": 117,
            "period": 4,
            "postseason": false,
            "season": 2021,
            "status": "Final",
            "time": "",
            "visitor_team": {
                "id": 19,
                "abbreviation": "NOP",
                "city": "New Orleans",
                "conference": "West",
                "division": "Southwest",
                "full_name": "New Orleans Pelicans",
                "name": "Pelicans"
            },
            "visitor_team_score": 114
        },
        {
            "id": 459133,
            "date": "2021-08-12T00:00:00.000Z",
            "home_team": {
                "id": 2,
                "abbreviation": "BOS",
                "city": "Boston",
                "conference": "East",
                "division": "Atlantic",
                "full_name": "Boston Celtics",
                "name": "Celtics"
            },
            "home_team_score": 108,
            "period": 4,
            "postseason": false,
            "season": 2021,
            "status": "Final",
            "time": "",
            "visitor_team": {
                "id": 22,
                "abbreviation": "ORL",
                "city": "Orlando",
                "conference": "East",
                "division": "Southeast",
                "full_name": "Orlando Magic",
                "name": "Magic"
            },
            "visitor_team_score": 71
        },
        {
            "id": 473362,
            "date": "2021-10-04T00:00:00.000Z",
            "home_team": {
                "id": 21,
                "abbreviation": "OKC",
                "city": "Oklahoma City",
                "conference": "West",
                "division": "Northwest",
                "full_name": "Oklahoma City Thunder",
                "name": "Thunder"
            },
            "home_team_score": 97,
            "period": 4,
            "postseason": false,
            "season": 2021,
            "status": "Final",
            "time": "",
            "visitor_team": {
                "id": 4,
                "abbreviation": "CHA",
                "city": "Charlotte",
                "conference": "East",
                "division": "Southeast",
                "full_name": "Charlotte Hornets",
                "name": "Hornets"
            },
            "visitor_team_score": 113
        },
        {
            "id": 459134,
            "date": "2021-08-12T00:00:00.000Z",
            "home_team": {
                "id": 28,
                "abbreviation": "TOR",
                "city": "Toronto",
                "conference": "East",
                "division": "Atlantic",
                "full_name": "Toronto Raptors",
                "name": "Raptors"
            },
            "home_team_score": 92,
            "period": 4,
            "postseason": false,
            "season": 2021,
            "status": "Final",
            "time": "",
            "visitor_team": {
                "id": 11,
                "abbreviation": "HOU",
                "city": "Houston",
                "conference": "West",
                "division": "Southwest",
                "full_name": "Houston Rockets",
                "name": "Rockets"
            },
            "visitor_team_score": 76
        },
        {
            "id": 473363,
            "date": "2021-10-04T00:00:00.000Z",
            "home_team": {
                "id": 26,
                "abbreviation": "SAC",
                "city": "Sacramento",
                "conference": "West",
                "division": "Pacific",
                "full_name": "Sacramento Kings",
                "name": "Kings"
            },
            "home_team_score": 117,
            "period": 4,
            "postseason": false,
            "season": 2021,
            "status": "Final",
            "time": "",
            "visitor_team": {
                "id": 24,
                "abbreviation": "PHX",
                "city": "Phoenix",
                "conference": "West",
                "division": "Pacific",
                "full_name": "Phoenix Suns",
                "name": "Suns"
            },
            "visitor_team_score": 106
        }
    ],
    "meta": {
        "total_pages": 57,
        "current_page": 1,
        "next_page": 2,
        "per_page": 25,
        "total_count": 1416
    }
}