{"data":[{"date":"2021-10-04T00:00:00.000Z","home_team":{"abbreviation":"MIA","city":"Miami","conference":"East","division":"Southeast","full_name":"Miami Heat","id":16,"name":"Heat"},"home_team_score":125,"id":473359,"period":4,"postseason":false,"season":2021,"status":"Final","time":"","visitor_team":{"abbreviation":"ATL","city":"Atlanta","conference":"East","division":"Southeast","full_name":"Atlanta Hawks","id":1,"name":"Hawks"},"visitor_team_score":99},{"date":"2021-10-04T00:00:00.000Z","home_team":{"abbreviation":"SAC","city":"Sacramento","conference":"West","division":"Pacific","full_name":"Sacramento Kings","id":26,"name":"Kings"},"home_team_score":117,"id":473363,"period":4,"postseason":false,"season":2021,"status":"Final","time":"","visitor_team":{"abbreviation":"PHX","city":"Phoenix","conference":"West","division":"Pacific","full_name":"Phoenix Suns","id":24,"name":"Suns"},"visitor_team_score":106},{"date":"2021-10-04T00:00:00.000Z","home_team":{"abbreviation":"LAC","city":"LA","conference":"West","division":"Pacific","full_name":"LA Clippers","id":13,"name":"Clippers"},"home_team_score":103,"id":473365,"period":4,"postseason":false,"season":2021,"status":"Final","time":"","visitor_team":{"abbreviation":"DEN","city":"Denver","conference":"West","division":"Northwest","full_name":"Denver Nuggets","id":8,"name":"Nuggets"},"visitor_team_score":102},{"date":"2021-10-21T00:00:00.000Z","home_team":{"abbreviation":"GSW","city":"Golden State","conference":"West","division":"Pacific","full_name":"Golden State Warriors","id":10,"name":"Warriors"},"home_team_score":115,"id":473422,"period":4,"postseason":false,"season":2021,"status":"Final","time":"","visitor_team":{"abbreviation":"LAC","city":"LA","conference":"West","division":"Pacific","full_name":"LA Clippers","id":13,"name":"Clippers"},"visitor_team_score":113},{"date":"2021-10-21T00:00:00.000Z","home_team":{"abbreviation":"ATL","city":"Atlanta","conference":"East","division":"Southeast","full_name":"Atlanta Hawks","id":1,"name":"Hawks"},"home_team_score":113,"id":473424,"period":4,"postseason":false,"season":2021,"status":"Final","time":"","visitor_team":{"abbreviation":"DAL","city":"Dallas","conference":"West","division":"Southwest","full_name":"Dallas Mavericks","id":7,"name":"Mavericks"},"visitor_team_score":87},{"date":"2021-10-23T00:00:00.000Z","home_team":{"abbreviation":"LAC","city":"LA","conference":"West","division":"Pacific","full_name":"LA Clippers","id":13,"name":"Clippers"},"home_team_score":114,"id":473435,"period":4,"postseason":false,"season":2021,"status":"Final","time":"","visitor_team":{"abbreviation":"MEM","city":"Memphis","conference":"West","division":"Southwest","full_name":"Memphis Grizzlies","id":15,"name":"Grizzlies"},"visitor_team_score":120},{"date":"2021-10-27T00:00:00.000Z","home_team":{"abbreviation":"MIL","city":"Milwaukee","conference":"East","division":"Central","full_name":"Milwaukee Bucks","id":17,"name":"Bucks"},"home_team_score":108,"id":473464,"period":4,"postseason":false,"season":2021,"status":"Final","time":"","visitor_team":{"abbreviation":"MIN","city":"Minnesota","conference":"West","division":"Northwest","full_name":"Minnesota Timberwolves","id":18,"name":"Timberwolves"},"visitor_team_score":113},{"date":"2021-10-05T00:00:00.000Z","home_team":{"abbreviation":"MEM","city":"Memphis","conference":"West","division":"Southwest","full_name":"Memphis Grizzlies","id":15,"name":"Grizzlies"},"home_team_score":87,"id":473369,"period":4,"postseason":false,"season":2021,"status":"Final","time":"Final","visitor_team":{"abbreviation":"MIL","city":"Milwaukee","conference":"East","division":"Central","full_name":"Milwaukee Bucks","id":17,"name":"Bucks"},"visitor_team_score":77},{"date":"2021-10-29T00:00:00.000Z","home_team":{"abbreviation":"POR","city":"Portland","conference":"West","division":"Northwest","full_name":"Portland Trail Blazers","id":25,"name":"Trail Blazers"},"home_team_score":111,"id":473480,"period":4,"postseason":false,"season":2021,"status":"Final","time":"","visitor_team":{"abbreviation":"LAC","city":"LA","conference":"West","division":"Pacific","full_name":"LA Clippers","id":13,"name":"Clippers"},"visitor_team_score":92},{"date":"2021-10-27T00:00:00.000Z","home_team":{"abbreviation":"LAC","city":"LA","conference":"West","division":"Pacific","full_name":"LA Clippers","id":13,"name":"Clippers"},"home_team_score":79,"id":473471,"period":4,"postseason":false,"season":2021,"status":"Final","time":"","visitor_team":{"abbreviation":"CLE","city":"Cleveland","conference":"East","division":"Central","full_name":"Cleveland Cavaliers","id":6,"name":"Cavaliers"},"visitor_team_score":92},{"date":"2021-10-28T00:00:00.000Z","home_team":{"abbreviation":"WAS","city":"Washington","conference":"East","division":"Southeast","full_name":"Washington Wizards","id":30,"name":"Wizards"},"home_team_score":122,"id":473473,"period":4,"postseason":false,"season":2021,"status":"Final","time":"","visitor_team":{"abbreviation":"ATL","city":"Atlanta","conference":"East","division":"Southeast","full_name":"Atlanta Hawks","id":1,"name":"Hawks"},"visitor_team_score":111},{"date":"2021-10-21T00:00:00.000Z","home_team":{"abbreviation":"MIA","city":"Miami","conference":"East","division":"Southeast","full_name":"Miami Heat","id":16,"name":"Heat"},"home_team_score":137,"id":473423,"period":4,"postseason":false,"season":2021,"status":"Final","time":"","visitor_team":{"abbreviation":"MIL","city":"Milwaukee","conference":"East","division":"Central","full_name":"Milwaukee Bucks","id":17,"name":"Bucks"},"visitor_team_score":95},{"date":"2021-10-23T00:00:00.000Z","home_team":{"abbreviation":"POR","city":"Portland","conference":"West","division":"Northwest","full_name":"Portland Trail Blazers","id":25,"name":"Trail Blazers"},"home_team_score":134,"id":473441,"period":4,"postseason":false,"season":2021,"status":"Final","time":"","visitor_team":{"abbreviation":"PHX","city":"Phoenix","conference":"West","division":"Pacific","full_name":"Phoenix Suns","id":24,"name":"Suns"},"visitor_team_score":105},{"date":"2021-10-25T00:00:00.000Z","home_team":{"abbreviation":"ATL","city":"Atlanta","conference":"East","division":"Southeast","full_name":"Atlanta Hawks","id":1,"name":"Hawks"},"home_team_score":122,"id":473454,"period":4,"postseason":false,"season":2021,"status":"Final","time":"","visitor_team":{"abbreviation":"DET","city":"Detroit","conference":"East","division":"Central","full_name":"Detroit Pistons","id":9,"name":"Pistons"},"visitor_team_score":104},{"date":"2021-10-20T00:00:00.000Z","home_team":{"abbreviation":"PHX","city":"Phoenix","conference":"West","division":"Pacific","full_name":"Phoenix Suns","id":24,"name":"Suns"},"home_team_score":98,"id":473421,"period":4,"postseason":false,"season":2021,"status":"Final","time":"","visitor_team":{"abbreviation":"DEN","city":"Denver","conference":"West","division":"Northwest","full_name":"Denver Nuggets","id":8,"name":"Nuggets"},"visitor_team_score":110},{"date":"2021-10-25T00:00:00.000Z","home_team":{"abbreviation":"LAC","city":"LA","conference":"West","division":"Pacific","full_name":"LA Clippers","id":13,"name":"Clippers"},"home_team_score":116,"id":473457,"period":4,"postseason":false,"season":2021,"status":"Final","time":"","visitor_team":{"abbreviation":"POR","city":"Portland","conference":"West","division":"Northwest","full_name":"Portland Trail Blazers","id":25,"name":"Trail Blazers"},"visitor_team_score":86},{"date":"2021-10-23T00:00:00.000Z","home_team":{"abbreviation":"SAS","city":"San Antonio","conference":"West","division":"Southwest","full_name":"San Antonio Spurs","id":27,"name":"Spurs"},"home_team_score":111,"id":473442,"period":4,"postseason":false,"season":2021,"status":"Final","time":"","visitor_team":{"abbreviation":"MIL","city":"Milwaukee","conference":"East","division":"Central","full_name":"Milwaukee Bucks","id":17,"name":"Bucks"},"visitor_team_score":121},{"date":"2021-10-25T00:00:00.000Z","home_team":{"abbreviation":"IND","city":"Indiana","conference":"East","division":"Central","full_name":"Indiana Pacers","id":12,"name":"Pacers"},"home_team_score":109,"id":473452,"period":4,"postseason":false,"season":2021,"status":"Final","time":"","visitor_team":{"abbreviation":"MIL","city":"Milwaukee","conference":"East","division":"Central","full_name":"Milwaukee Bucks","id":17,"name":"Bucks"},"visitor_team_score":119},{"date":"2021-10-23T00:00:00.000Z","home_team":{"abbreviation":"CLE","city":"Cleveland","conference":"East","division":"Central","full_name":"Cleveland Cavaliers","id":6,"name":"Cavaliers"},"home_team_score":101,"id":473439,"period":4,"postseason":false,"season":2021,"status":"Final","time":"","visitor_team":{"abbreviation":"ATL","city":"Atlanta","conference":"East","division":"Southeast","full_name":"Atlanta Hawks","id":1,"name":"Hawks"},"visitor_team_score":95},{"date":"2021-10-27T00:00:00.000Z","home_team":{"abbreviation":"PHX","city":"Phoenix","conference":"West","division":"Pacific","full_name":"Phoenix Suns","id":24,"name":"Suns"},"home_team_score":107,"id":473469,"period":4,"postseason":false,"season":2021,"status":"Final","time":"","visitor_team":{"abbreviation":"SAC","city":"Sacramento","conference":"West","division":"Pacific","full_name":"Sacramento Kings","id":26,"name":"Kings"},"visitor_team_score":110},{"date":"2021-10-30T00:00:00.000Z","home_team":{"abbreviation":"PHI","city":"Philadelphia","conference":"East","division":"Atlantic","full_name":"Philadelphia 76ers","id":23,"name":"76ers"},"home_team_score":122,"id":473495,"period":4,"postseason":false,"season":2021,"status":"Final","time":"","visitor_team":{"abbreviation":"ATL","city":"Atlanta","conference":"East","division":"Southeast","full_name":"Atlanta Hawks","id":1,"name":"Hawks"},"visitor_team_score":94},{"date":"2021-10-27T00:00:00.000Z","home_team":{"abbreviation":"NOP","city":"New Orleans","conference":"West","division":"Southwest","full_name":"New Orleans Pelicans","id":19,"name":"Pelicans"},"home_team_score":99,"id":473463,"period":4,"postseason":false,"season":2021,"status":"Final","time":"","visitor_team":{"abbreviation":"ATL","city":"Atlanta","conference":"East","division":"Southeast","full_name":"Atlanta Hawks","id":1,"name":"Hawks"},"visitor_team_score":102},{"date":"2021-10-30T00:00:00.000Z","home_team":{"abbreviation":"MIL","city":"Milwaukee","conference":"East","division":"Central","full_name":"Milwaukee Bucks","id":17,"name":"Bucks"},"home_team_score":93,"id":473488,"period":4,"postseason":false,"season":2021,"status":"Final","time":"","visitor_team":{"abbreviation":"SAS","city":"San Antonio","conference":"West","division":"Southwest","full_name":"San Antonio Spurs","id":27,"name":"Spurs"},"visitor_team_score":102},{"date":"2021-10-22T00:00:00.000Z","home_team":{"abbreviation":"LAL","city":"Los Angeles","conference":"West","division":"Pacific","full_name":"Los Angeles Lakers","id":14,"name":"Lakers"},"home_team_score":105,"id":473432,"period":4,"postseason":false,"season":2021,"status":"Final","time":"","visitor_team":{"abbreviation":"PHX","city":"Phoenix","conference":"West","division":"Pacific","full_name":"Phoenix Suns","id":24,"name":"Suns"},"visitor_team_score":115},{"date":"2021-10-19T00:00:00.000Z","home_team":{"abbreviation":"MIL","city":"Milwaukee","conference":"East","division":"Central","full_name":"Milwaukee Bucks","id":17,"name":"Bucks"},"home_team_score":127,"id":473410,"period":4,"postseason":false,"season":2021,"status":"Final","time":"","visitor_team":{"abbreviation":"BKN","city":"Brooklyn","conference":"East","division":"Atlantic","full_name":"Brooklyn Nets","id":3,"name":"Nets"},"visitor_team_score":104}],"meta":{"current_page":1,"next_page":2,"per_page":25,"total_count":370,"total_pages":15}}
