{"data":[{"ast":0,"blk":1,"dreb":1,"fg3_pct":0.0,"fg3a":3,"fg3m":0,"fg_pct":42.9,"fga":7,"fgm":3,"ft_pct":0.0,"fta":0,"ftm":0,"game":{"date":"2021-10-04T00:00:00.000Z","home_team_id":16,"home_team_score":125,"id":473359,"period":4,"postseason":false,"season":2021,"status":"Final","time":"","visitor_team_id":1,"visitor_team_score":99},"id":7313915,"min":"22:25","oreb":1,"pf":2,"player":{"first_name":"Cameron","id":666860,"last_name":"Reddish","position":"F-G","team_id":25},"pts":6,"reb":2,"stl":1,"team":{"abbreviation":"ATL","city":"Atlanta","conference":"East","division":"Southeast","full_name":"Atlanta Hawks","id":1,"name":"Hawks"},"turnover":2},{"ast":1,"blk":0,"dreb":8,"fg3_pct":0.0,"fg3a":1,"fg3m":0,"fg_pct":62.5,"fga":8,"fgm":5,"ft_pct":100.0,"fta":4,"ftm":4,"game":{"date":"2021-10-04T00:00:00.000Z","home_team_id":16,"home_team_score":125,"id":473359,"period":4,"postseason":false,"season":2021,"status":"Final","time":"","visitor_team_id":1,"visitor_team_score":99},"id":7313916,"min":"21:58","oreb":1,"pf":3,"player":{"first_name":"John","height_feet":6,"height_inches":10,"id":101,"last_name":"Collins","position":"F-C","team_id":1,"weight_pounds":235},"pts":14,"reb":9,"stl":0,"team":{"abbreviation":"ATL","city":"Atlanta","conference":"East","division":"Southeast","full_name":"Atlanta Hawks","id":1,"name":"Hawks"},"turnover":1},{"ast":1,"blk":0,"dreb":4,"fg3_pct":0.0,"fg3a":0,"fg3m":0,"fg_pct":0.0,"fga":0,"fgm":0,"ft_pct":0.0,"fta":0,"ftm":0,"game":{"date":"2021-10-04T00:00:00.000Z","home_team_id":16,"home_team_score":125,"id":473359,"period":4,"postseason":false,"season":2021,"status":"Final","time":"","visitor_team_id":1,"visitor_team_score":99},"id":7313917,"min":"13:46","oreb":1,"pf":3,"player":{"first_name":"Gorgui","height_feet":6,"height_inches":11,"id":129,"last_name":"Dieng","position":"C","team_id":27,"weight_pounds":252},"pts":0,"reb":5,"stl":0,"team":{"abbreviation":"ATL","city":"Atlanta","conference":"East","division":"Southeast","full_name":"Atlanta Hawks","id":1,"name":"Hawks"},"turnover":0},{"ast":3,"blk":0,"dreb":1,"fg3_pct":22.2,"fg3a":9,"fg3m":2,"fg_pct":30.8,"fga":13,"fgm":4,"ft_pct":0.0,"fta":0,"ftm":0,"game":{"date":"2021-10-04T00:00:00.000Z","home_team_id":16,"home_team_score":125,"id":473359,"period":4,"postseason":false,"season":2021,"status":"Final","time":"","visitor_team_id":1,"visitor_team_score":99},"id":7313918,"min":"23:24","oreb":0,"pf":2,"player":{"first_name":"Bogdan","height_feet":6,"height_inches":6,"id":53,"last_name":"Bogdanovic","position":"G","team_id":1,"weight_pounds":205},"pts":10,"reb":1,"stl":4,"team":{"abbreviation":"ATL","city":"Atlanta","conference":"East","division":"Southeast","full_name":"Atlanta Hawks","id":1,"name":"Hawks"},"turnover":1},{"ast":3,"blk":0,"dreb":0,"fg3_pct":20.0,"fg3a":5,"fg3m":1,"fg_pct":33.3,"fga":15,"fgm":5,"ft_pct":100.0,"fta":3,"ftm":3,"game":{"date":"2021-10-04T00:00:00.000Z","home_team_id":16,"home_team_score":125,"id":473359,"period":4,"postseason":false,"season":2021,"status":"Final","time":"","visitor_team_id":1,"visitor_team_score":99},"id":7313919,"min":"17:36","oreb":0,"pf":2,"player":{"first_name":"Trae","height_feet":6,"height_inches":2,"id":490,"last_name":"Young","position":"G","team_id":1,"weight_pounds":180},"pts":14,"reb":0,"stl":0,"team":{"abbreviation":"ATL","city":"Atlanta","conference":"East","division":"Southeast","full_name":"Atlanta Hawks","id":1,"name":"Hawks"},"turnover":4},{"ast":0,"blk":0,"dreb":1,"fg3_pct":25.0,"fg3a":4,"fg3m":1,"fg_pct":45.5,"fga":11,"fgm":5,"ft_pct":100.0,"fta":3,"ftm":3,"game":{"date":"2021-10-04T00:00:00.000Z","home_team_id":16,"home_team_score":125,"id":473359,"period":4,"postseason":false,"season":2021,"status":"Final","time":"","visitor_team_id":1,"visitor_team_score":99},"id":7313920,"min":"22:14","oreb":1,"pf":2,"player":{"first_name":"Danilo","height_feet":6,"height_inches":10,"id":167,"last_name":"Gallinari","position":"F","team_id":2,"weight_pounds":225},"pts":14,"reb":2,"stl":0,"team":{"abbreviation":"ATL","city":"Atlanta","conference":"East","division":"Southeast","full_name":"Atlanta Hawks","id":1,"name":"Hawks"},"turnover":0},{"ast":0,"blk":0,"dreb":2,"fg3_pct":50.0,"fg3a":2,"fg3m":1,"fg_pct":57.1,"fga":7,"fgm":4,"ft_pct":100.0,"fta":4,"ftm":4,"game":{"date":"2021-10-04T00:00:00.000Z","home_team_id":16,"home_team_score":125,"id":473359,"period":4,"postseason":false,"season":2021,"status":"Final","time":"","visitor_team_id":1,"visitor_team_score":99},"id":7313921,"min":"12:36","oreb":0,"pf":0,"player":{"first_name":"Lou","height_feet":6,"height_inches":1,"id":481,"last_name":"Williams","position":"G","team_id":1,"weight_pounds":175},"pts":13,"reb":2,"stl":1,"team":{"abbreviation":"ATL","city":"Atlanta","conference":"East","division":"Southeast","full_name":"Atlanta Hawks","id":1,"name":"Hawks"},"turnover":1},{"ast":1,"blk":1,"dreb":2,"fg3_pct":33.3,"fg3a":3,"fg3m":1,"fg_pct":33.3,"fga":3,"fgm":1,"ft_pct":0.0,"fta":0,"ftm":0,"game":{"date":"2021-10-04T00:00:00.000Z","home_team_id":16,"home_team_score":125,"id":473359,"period":4,"postseason":false,"season":2021,"status":"Final","time":"","visitor_team_id":1,"visitor_team_score":99},"id":7313922,"min":"14:23","oreb":1,"pf":1,"player":{"first_name":"Solomon","height_feet":6,"height_inches":7,"id":212,"last_name":"Hill","position":"F","team_id":20,"weight_pounds":225},"pts":3,"reb":3,"stl":0,"team":{"abbreviation":"ATL","city":"Atlanta","conference":"East","division":"Southeast","full_name":"Atlanta Hawks","id":1,"name":"Hawks"},"turnover":1},{"ast":5,"blk":0,"dreb":2,"fg3_pct":0.0,"fg3a":1,"fg3m":0,"fg_pct":50.0,"fga":4,"fgm":2,"ft_pct":100.0,"fta":2,"ftm":2,"game":{"date":"2021-10-04T00:00:00.000Z","home_team_id":16,"home_team_score":125,"id":473359,"period":4,"postseason":false,"season":2021,"status":"Final","time":"","visitor_team_id":1,"visitor_team_score":99},"id":7313923,"min":"19:47","oreb":1,"pf":0,"player":{"first_name":"Delon","height_feet":6,"height_inches":5,"id":487,"last_name":"Wright","position":"G","team_id":30,"weight_pounds":183},"pts":6,"reb":3,"stl":1,"team":{"abbreviation":"ATL","city":"Atlanta","conference":"East","division":"Southeast","full_name":"Atlanta Hawks","id":1,"name":"Hawks"},"turnover":2},{"ast":2,"blk":0,"dreb":2,"fg3_pct":0.0,"fg3a":0,"fg3m":0,"fg_pct":0.0,"fga":0,"fgm":0,"ft_pct":100.0,"fta":2,"ftm":2,"game":{"date":"2021-10-04T00:00:00.000Z","home_team_id":16,"home_team_score":125,"id":473359,"period":4,"postseason":false,"season":2021,"status":"Final","time":"","visitor_team_id":1,"visitor_team_score":99},"id":7313924,"min":"13:14","oreb":0,"pf":4,"player":{"first_name":"Jahlil","height_feet":6,"height_inches":11,"id":354,"last_name":"Okafor","position":"C","team_id":1,"weight_pounds":275},"pts":2,"reb":2,"stl":0,"team":{"abbreviation":"ATL","city":"Atlanta","conference":"East","division":"Southeast","full_name":"Atlanta Hawks","id":1,"name":"Hawks"},"turnover":0},{"ast":0,"blk":1,"dreb":1,"fg3_pct":0.0,"fg3a":1,"fg3m":0,"fg_pct":33.3,"fga":3,"fgm":1,"ft_pct":50.0,"fta":4,"ftm":2,"game":{"date":"2021-10-04T00:00:00.000Z","home_team_id":16,"home_team_score":125,"id":473359,"period":4,"postseason":false,"season":2021,"status":"Final","time":"","visitor_team_id":1,"visitor_team_score":99},"id":7313925,"min":"12:00","oreb":0,"pf":0,"player":{"first_name":"Jalen","id":17896040,"last_name":"Johnson","position":"F","team_id":1},"pts":4,"reb":1,"stl":1,"team":{"abbreviation":"ATL","city":"Atlanta","conference":"East","division":"Southeast","full_name":"Atlanta Hawks","id":1,"name":"Hawks"},"turnover":1},{"ast":0,"blk":0,"dreb":0,"fg3_pct":33.3,"fg3a":3,"fg3m":1,"fg_pct":40.0,"fga":5,"fgm":2,"ft_pct":0.0,"fta":0,"ftm":0,"game":{"date":"2021-10-04T00:00:00.000Z","home_team_id":16,"home_team_score":125,"id":473359,"period":4,"postseason":false,"season":2021,"status":"Final","time":"","visitor_team_id":1,"visitor_team_score":99},"id":7313926,"min":"12:00","oreb":1,"pf":1,"player":{"first_name":"Skylar","id":3547289,"last_name":"Mays","position":"G","team_id":25},"pts":5,"reb":1,"stl":1,"team":{"abbreviation":"ATL","city":"Atlanta","conference":"East","division":"Southeast","full_name":"Atlanta Hawks","id":1,"name":"Hawks"},"turnover":0},{"ast":0,"blk":0,"dreb":0,"fg3_pct":0.0,"fg3a":3,"fg3m":0,"fg_pct":0.0,"fga":4,"fgm":0,"ft_pct":0.0,"fta":0,"ftm":0,"game":{"date":"2021-10-04T00:00:00.000Z","home_team_id":16,"home_team_score":125,"id":473359,"period":4,"postseason":false,"season":2021,"status":"Final","time":"","visitor_team_id":1,"visitor_team_score":99},"id":7313927,"min":"12:00","oreb":0,"pf":2,"player":{"first_name":"Timothe","height_feet":6,"height_inches":6,"id":288,"last_name":"Luwawu-Cabarrot","position":"G-F","team_id":1,"weight_pounds":210},"pts":0,"reb":0,"stl":0,"team":{"abbreviation":"ATL","city":"Atlanta","conference":"East","division":"Southeast","full_name":"Atlanta Hawks","id":1,"name":"Hawks"},"turnover":0},{"ast":0,"blk":0,"dreb":0,"fg3_pct":0.0,"fg3a":0,"fg3m":0,"fg_pct":0.0,"fga":1,"fgm":0,"ft_pct":0.0,"fta":0,"ftm":0,"game":{"date":"2021-10-04T00:00:00.000Z","home_team_id":16,"home_team_score":125,"id":473359,"period":4,"postseason":false,"season":2021,"status":"Final","time":"","visitor_team_id":1,"visitor_team_score":99},"id":7313928,"min":"5:05","oreb":0,"pf":1,"player":{"first_name":"Johnny","id":18677827,"last_name":"Hamilton","position":"C","team_id":1},"pts":0,"reb":0,"stl":0,"team":{"abbreviation":"ATL","city":"Atlanta","conference":"East","division":"Southeast","full_name":"Atlanta Hawks","id":1,"name":"Hawks"},"turnover":0},{"ast":3,"blk":0,"dreb":0,"fg3_pct":0.0,"fg3a":1,"fg3m":0,"fg_pct":0.0,"fga":1,"fgm":0,"ft_pct":0.0,"fta":0,"ftm":0,"game":{"date":"2021-10-04T00:00:00.000Z","home_team_id":16,"home_team_score":125,"id":473359,"period":4,"postseason":false,"season":2021,"status":"Final","time":"","visitor_team_id":1,"visitor_team_score":99},"id":7313929,"min":"10:37","oreb":0,"pf":0,"player":{"first_name":"Sharife","id":17896029,"last_name":"Cooper","position":"G","team_id":1},"pts":0,"reb":0,"stl":1,"team":{"abbreviation":"ATL","city":"Atlanta","conference":"East","division":"Southeast","full_name":"Atlanta Hawks","id":1,"name":"Hawks"},"turnover":1},{"ast":0,"blk":0,"dreb":2,"fg3_pct":100.0,"fg3a":2,"fg3m":2,"fg_pct":66.7,"fga":3,"fgm":2,"ft_pct":100.0,"fta":2,"ftm":2,"game":{"date":"2021-10-04T00:00:00.000Z","home_team_id":16,"home_team_score":125,"id":473359,"period":4,"postseason":false,"season":2021,"status":"Final","time":"","visitor_team_id":1,"visitor_team_score":99},"id":7313930,"min":"6:55","oreb":0,"pf":0,"player":{"first_name":"AJ","id":17554004,"last_name":"Lawson","position":"G","team_id":7},"pts":8,"reb":2,"stl":0,"team":{"abbreviation":"ATL","city":"Atlanta","conference":"East","division":"Southeast","full_name":"Atlanta Hawks","id":1,"name":"Hawks"},"turnover":1},{"ast":0,"blk":0,"dreb":0,"fg3_pct":0.0,"fg3a":0,"fg3m":0,"fg_pct":0.0,"fga":0,"fgm":0,"ft_pct":0.0,"fta":0,"ftm":0,"game":{"date":"2021-10-04T00:00:00.000Z","home_team_id":16,"home_team_score":125,"id":473359,"period":4,"postseason":false,"season":2021,"status":"Final","time":"","visitor_team_id":1,"visitor_team_score":99},"id":7313931,"min":"","oreb":0,"pf":0,"player":{"first_name":"Clint","height_feet":6,"height_inches":10,"id":83,"last_name":"Capela","position":"C","team_id":1,"weight_pounds":240},"pts":0,"reb":0,"stl":0,"team":{"abbreviation":"ATL","city":"Atlanta","conference":"East","division":"Southeast","full_name":"Atlanta Hawks","id":1,"name":"Hawks"},"turnover":0},{"ast":0,"blk":0,"dreb":0,"fg3_pct":0.0,"fg3a":0,"fg3m":0,"fg_pct":0.0,"fga":0,"fgm":0,"ft_pct":0.0,"fta":0,"ftm":0,"game":{"date":"2021-10-04T00:00:00.000Z","home_team_id":16,"home_team_score":125,"id":473359,"period":4,"postseason":false,"season":2021,"status":"Final","time":"","visitor_team_id":1,"visitor_team_score":99},"id":7313932,"min":"","oreb":0,"pf":0,"player":{"first_name":"Kevin","height_feet":6,"height_inches":7,"id":221,"last_name":"Huerter","position":"G","team_id":26,"weight_pounds":190},"pts":0,"reb":0,"stl":0,"team":{"abbreviation":"ATL","city":"Atlanta","conference":"East","division":"Southeast","full_name":"Atlanta Hawks","id":1,"name":"Hawks"},"turnover":0},{"ast":0,"blk":0,"dreb":0,"fg3_pct":0.0,"fg3a":0,"fg3m":0,"fg_pct":0.0,"fga":0,"fgm":0,"ft_pct":0.0,"fta":0,"ftm":0,"game":{"date":"2021-10-04T00:00:00.000Z","home_team_id":16,"home_team_score":125,"id":473359,"period":4,"postseason":false,"season":2021,"status":"Final","time":"","visitor_team_id":1,"visitor_team_score":99},"id":7313933,"min":"","oreb":0,"pf":0,"player":{"first_name":"De'Andre","id":666656,"last_name":"Hunter","position":"F","team_id":1},"pts":0,"reb":0,"stl":0,"team":{"abbreviation":"ATL","city":"Atlanta","conference":"East","division":"Southeast","full_name":"Atlanta Hawks","id":1,"name":"Hawks"},"turnover":0},{"ast":0,"blk":0,"dreb":0,"fg3_pct":0.0,"fg3a":0,"fg3m":0,"fg_pct":0.0,"fga":0,"fgm":0,"ft_pct":0.0,"fta":0,"ftm":0,"game":{"date":"2021-10-04T00:00:00.000Z","home_team_id":16,"home_team_score":125,"id":473359,"period":4,"postseason":false,"season":2021,"status":"Final","time":"","visitor_team_id":1,"visitor_team_score":99},"id":7313934,"min":"","oreb":0,"pf":0,"player":{"first_name":"Onyeka","id":3547244,"last_name":"Okongwu","position":"F-C","team_id":1},"pts":0,"reb":0,"stl":0,"team":{"abbreviation":"ATL","city":"Atlanta","conference":"East","division":"Southeast","full_name":"Atlanta Hawks","id":1,"name":"Hawks"},"turnover":0},{"ast":1,"blk":1,"dreb":1,"fg3_pct":66.7,"fg3a":6,"fg3m":4,"fg_pct":66.7,"fga":6,"fgm":4,"ft_pct":100.0,"fta":1,"ftm":1,"game":{"date":"2021-10-04T00:00:00.000Z","home_team_id":16,"home_team_score":125,"id":473359,"period":4,"postseason":false,"season":2021,"status":"Final","time":"","visitor_team_id":1,"visitor_team_score":99},"id":7313935,"min":"22:20","oreb":0,"pf":2,"player":{"first_name":"Duncan","height_feet":6,"height_inches":8,"id":397,"last_name":"Robinson","position":"F","team_id":16,"weight_pounds":210},"pts":13,"reb":1,"stl":1,"team":{"abbreviation":"MIA","city":"Miami","conference":"East","division":"Southeast","full_name":"Miami Heat","id":16,"name":"Heat"},"turnover":1},{"ast":1,"blk":1,"dreb":4,"fg3_pct":66.7,"fg3a":3,"fg3m":2,"fg_pct":40.0,"fga":5,"fgm":2,"ft_pct":0.0,"fta":0,"ftm":0,"game":{"date":"2021-10-04T00:00:00.000Z","home_team_id":16,"home_team_score":125,"id":473359,"period":4,"postseason":false,"season":2021,"status":"Final","time":"","visitor_team_id":1,"visitor_team_score":99},"id":7313936,"min":"13:11","oreb":0,"pf":1,"player":{"first_name":"PJ","height_feet":6,"height_inches":6,"id":450,"last_name":"Tucker","position":"F","team_id":23,"weight_pounds":245},"pts":6,"reb":4,"stl":1,"team":{"abbreviation":"MIA","city":"Miami","conference":"East","division":"Southeast","full_name":"Miami Heat","id":16,"name":"Heat"},"turnover":1},{"ast":0,"blk":0,"dreb":3,"fg3_pct":0.0,"fg3a":0,"fg3m":0,"fg_pct":75.0,"fga":8,"fgm":6,"ft_pct":50.0,"fta":4,"ftm":2,"game":{"date":"2021-10-04T00:00:00.000Z","home_team_id":16,"home_team_score":125,"id":473359,"period":4,"postseason":false,"season":2021,"status":"Final","time":"","visitor_team_id":1,"visitor_team_score":99},"id":7313937,"min":"14:36","oreb":2,"pf":1,"player":{"first_name":"Bam","height_feet":6,"height_inches":10,"id":4,"last_name":"Adebayo","position":"C-F","team_id":16,"weight_pounds":255},"pts":14,"reb":5,"stl":1,"team":{"abbreviation":"MIA","city":"Miami","conference":"East","division":"Southeast","full_name":"Miami Heat","id":16,"name":"Heat"},"turnover":2},{"ast":4,"blk":1,"dreb":4,"fg3_pct":75.0,"fg3a":4,"fg3m":3,"fg_pct":75.0,"fga":12,"fgm":9,"ft_pct":83.3,"fta":6,"ftm":5,"game":{"date":"2021-10-04T00:00:00.000Z","home_team_id":16,"home_team_score":125,"id":473359,"period":4,"postseason":false,"season":2021,"status":"Final","time":"","visitor_team_id":1,"visitor_team_score":99},"id":7313938,"min":"26:17","oreb":0,"pf":2,"player":{"first_name":"Tyler","id":666633,"last_name":"Herro","position":"G","team_id":16},"pts":26,"reb":4,"stl":1,"team":{"abbreviation":"MIA","city":"Miami","conference":"East","division":"Southeast","full_name":"Miami Heat","id":16,"name":"Heat"},"turnover":2},{"ast":0,"blk":0,"dreb":2,"fg3_pct":0.0,"fg3a":0,"fg3m":0,"fg_pct":100.0,"fga":1,"fgm":1,"ft_pct":0.0,"fta":0,"ftm":0,"game":{"date":"2021-10-04T00:00:00.000Z","home_team_id":16,"home_team_score":125,"id":473359,"period":4,"postseason":false,"season":2021,"status":"Final","time":"","visitor_team_id":1,"visitor_team_score":99},"id":7313948,"min":"3:44","oreb":0,"pf":1,"player":{"first_name":"Javonte","id":17554001,"last_name":"Smart","position":"G","team_id":16},"pts":2,"reb":2,"stl":0,"team":{"abbreviation":"MIA","city":"Miami","conference":"East","division":"Southeast","full_name":"Miami Heat","id":16,"name":"Heat"},"turnover":0}],"meta":{"current_page":1,"next_page":2,"per_page":25,"total_count":720,"total_pages":29}}
